{
  "formatVersion": 1,
  "database": {
    "version": 1,
    "identityHash": "0ca17db7555c74843c4fa63fbcf203af",
    "entities": [
      {
        "tableName": "news_items",
        "createSql": "CREATE TABLE IF NOT EXISTS `${TABLE_NAME}` (`url` TEXT NOT NULL, `version` INTEGER NOT NULL, `title` TEXT, `date_time` INTEGER NOT NULL, `second_title` TEXT, `bookmark` INTEGER NOT NULL, `tagpath` TEXT, `tagname` TEXT, `imageurl` TEXT, `imagesmallUrl` TEXT, `imagecaption` TEXT, `imagecredit` TEXT, `audiourl` TEXT, `audiotitle` TEXT, `audiosource` TEXT, `audiodurationInWords` TEXT, `audioduration` REAL, `audiocoverUrl` TEXT, PRIMARY KEY(`url`))",
        "fields": [
          {
            "fieldPath": "url",
            "columnName": "url",
            "affinity": "TEXT",
            "notNull": true
          },
          {
            "fieldPath": "version",
            "columnName": "version",
            "affinity": "INTEGER",
            "notNull": true
          },
          {
            "fieldPath": "title",
            "columnName": "title",
            "affinity": "TEXT",
            "notNull": false
          },
          {
            "fieldPath": "dateTime",
            "columnName": "date_time",
            "affinity": "INTEGER",
            "notNull": true
          },
          {
            "fieldPath": "secondTitle",
            "columnName": "second_title",
            "affinity": "TEXT",
            "notNull": false
          },
          {
            "fieldPath": "bookmark",
            "columnName": "bookmark",
            "affinity": "INTEGER",
            "notNull": true
          },
          {
            "fieldPath": "tag.path",
            "columnName": "tagpath",
            "affinity": "TEXT",
            "notNull": false
          },
          {
            "fieldPath": "tag.name",
            "columnName": "tagname",
            "affinity": "TEXT",
            "notNull": false
          },
          {
            "fieldPath": "image.url",
            "columnName": "imageurl",
            "affinity": "TEXT",
            "notNull": false
          },
          {
            "fieldPath": "image.smallUrl",
            "columnName": "imagesmallUrl",
            "affinity": "TEXT",
            "notNull": false
          },
          {
            "fieldPath": "image.caption",
            "columnName": "imagecaption",
            "affinity": "TEXT",
            "notNull": false
          },
          {
            "fieldPath": "image.credit",
            "columnName": "imagecredit",
            "affinity": "TEXT",
            "notNull": false
          },
          {
            "fieldPath": "audio.url",
            "columnName": "audiourl",
            "affinity": "TEXT",
            "notNull": false
          },
          {
            "fieldPath": "audio.title",
            "columnName": "audiotitle",
            "affinity": "TEXT",
            "notNull": false
          },
          {
            "fieldPath": "audio.source",
            "columnName": "audiosource",
            "affinity": "TEXT",
            "notNull": false
          },
          {
            "fieldPath": "audio.durationInWords",
            "columnName": "audiodurationInWords",
            "affinity": "TEXT",
            "notNull": false
          },
          {
            "fieldPath": "audio.duration",
            "columnName": "audioduration",
            "affinity": "REAL",
            "notNull": false
          },
          {
            "fieldPath": "audio.coverUrl",
            "columnName": "audiocoverUrl",
            "affinity": "TEXT",
            "notNull": false
          }
        ],
        "primaryKey": {
          "columnNames": [
            "url"
          ],
          "autoGenerate": false
        },
        "indices": [],
        "foreignKeys": []
      }
    ],
    "views": [],
    "setupQueries": [
      "CREATE TABLE IF NOT EXISTS room_master_table (id INTEGER PRIMARY KEY,identity_hash TEXT)",
      "INSERT OR REPLACE INTO room_master_table (id,identity_hash) VALUES(42, '0ca17db7555c74843c4fa63fbcf203af')"
    ]
  }
}